…
``` r
###resuelva acá
library(dplyr)
#B. Estrategia de negocio ha decidido que ya no operará en aquellos territorios cuyas pérdidas sean "considerables". Bajo su criterio, ¿cuáles son estos territorios y por qué ya no debemos operar ahí?

# grupo
territorios <- df %>% 
              select(Territorio, Venta)%>%
              group_by(Territorio, Venta)
              
territorios
```

    ## # A tibble: 226,236 × 2
    ## # Groups:   Territorio, Venta [21,510]
    ##    Territorio Venta
    ##    <chr>      <dbl>
    ##  1 69c1b705    26.5
    ##  2 69c1b705     0  
    ##  3 69c1b705    39.8
    ##  4 69c1b705    39.8
    ##  5 69c1b705   106  
    ##  6 69c1b705    39.8
    ##  7 69c1b705     0  
    ##  8 69c1b705    39.8
    ##  9 69c1b705    79.5
    ## 10 69c1b705   132. 
    ## # … with 226,226 more rows
…
